{
    "items": [
        {
            "referenceId": 2300498,
            "referenceType": "Data Package",
            "dateOfIssue": "2023-09-26T12:00:00Z",
            "lifecycle": "Active",
            "visibility": "Public",
            "fileCount": 19,
            "fileAccess": "Public",
            "title": "Mojave Desert Network Desert Springs Data Package 2016 - 2023",
            "citation": "Bailard J and Lehman M. 2023. Mojave Desert Network Desert Springs Data Package 2016 - 2023. National Park Service. Fort Collins CO  https://doi.org/10.57830/2300498",
            "allContactsDisplayCitation": "Bailard J and Lehman M. 2023. Mojave Desert Network Desert Springs Data Package 2016 - 2023. National Park Service. Fort Collins CO  https://doi.org/10.57830/2300498",
            "referenceUrl": " https://irma.nps.gov/DataStore/Reference/Profile/2300498",
            "contacts": null,
            "referenceGroupType": "Datasets",
            "typeName": "Data Package",
            "isDOI": "True",
            "newVersion": null,
            "mostRecentVersion": null,
            "productCount": 0
        },
        {
            "referenceId": 2300415,
            "referenceType": "Data Package",
            "dateOfIssue": "2023-08-30T12:00:00Z",
            "lifecycle": "Active",
            "visibility": "Public",
            "fileCount": 17,
            "fileAccess": "Public",
            "title": "Pacific Island Network Benthic Marine and Marine Fish Monitoring Dataset 2006 - 2022",
            "citation": "Kozar K  <a target=\"_blank\" href=\"https://orcid.org/0000-0002-4843-1104\"><img src=\"/DataStore/Resources/Images/Icons/ORCID.png\" class=\"orcidContact\" alt=\"orcid.org click-able icon\"><\/a>   and Others. 2023. Pacific Island Network Benthic Marine and Marine Fish Monitoring Dataset 2006 - 2022. National Park Service. Fort Collins CO  https://doi.org/10.57830/2300415",
            "allContactsDisplayCitation": "Kozar K  <a target=\"_blank\" href=\"https://orcid.org/0000-0002-4843-1104\"><img src=\"/DataStore/Resources/Images/Icons/ORCID.png\" class=\"orcidContact\" alt=\"orcid.org click-able icon\"><\/a>  , McKenna S, Brown E. 2023. Pacific Island Network Benthic Marine and Marine Fish Monitoring Dataset 2006 - 2022. National Park Service. Fort Collins CO  https://doi.org/10.57830/2300415",
            "referenceUrl": " https://irma.nps.gov/DataStore/Reference/Profile/2300415",
            "contacts": null,
            "referenceGroupType": "Datasets",
            "typeName": "Data Package",
            "isDOI": "True",
            "newVersion": null,
            "mostRecentVersion": null,
            "productCount": 0
        },
        {
            "referenceId": 2302037,
            "referenceType": "Data Package",
            "dateOfIssue": "2024-08-30T12:00:00Z",
            "lifecycle": "Active",
            "visibility": "Public",
            "fileCount": 10,
            "fileAccess": "Public",
            "title": "Stream Fish Monitoring Data in Eastern Rivers and Mountains Network Parks (2022-2023) Data Package",
            "citation": "Stum M  <a target=\"_blank\" href=\"https://orcid.org/0000-0001-8975-9221\"><img src=\"/DataStore/Resources/Images/Icons/ORCID.png\" class=\"orcidContact\" alt=\"orcid.org click-able icon\"><\/a>   and Tzilkowski C  <a target=\"_blank\" href=\"https://orcid.org/0009-0009-5659-8519\"><img src=\"/DataStore/Resources/Images/Icons/ORCID.png\" class=\"orcidContact\" alt=\"orcid.org click-able icon\"><\/a>. 2024. Stream Fish Monitoring Data in Eastern Rivers and Mountains Network Parks (2022-2023) Data Package. National Park Service. Fort Collins CO  https://doi.org/10.57830/2302037",
            "allContactsDisplayCitation": "Stum M  <a target=\"_blank\" href=\"https://orcid.org/0000-0001-8975-9221\"><img src=\"/DataStore/Resources/Images/Icons/ORCID.png\" class=\"orcidContact\" alt=\"orcid.org click-able icon\"><\/a>   and Tzilkowski C  <a target=\"_blank\" href=\"https://orcid.org/0009-0009-5659-8519\"><img src=\"/DataStore/Resources/Images/Icons/ORCID.png\" class=\"orcidContact\" alt=\"orcid.org click-able icon\"><\/a>  . 2024. Stream Fish Monitoring Data in Eastern Rivers and Mountains Network Parks (2022-2023) Data Package. National Park Service. Fort Collins CO  https://doi.org/10.57830/2302037",
            "referenceUrl": " https://irma.nps.gov/DataStore/Reference/Profile/2302037",
            "contacts": null,
            "referenceGroupType": "Datasets",
            "typeName": "Data Package",
            "isDOI": "True",
            "newVersion": null,
            "mostRecentVersion": null,
            "productCount": 0
        },
        {
            "referenceId": 2305115,
            "referenceType": "Data Package",
            "dateOfIssue": "2024-07-17T12:00:00Z",
            "lifecycle": "Active",
            "visibility": "Public",
            "fileCount": 2,
            "fileAccess": "Public",
            "title": "Pilot Landbird Monitoring throughout the Southeast Coast Network, 2009-2010 - Data Package",
            "citation": "Brown JR  <a target=\"_blank\" href=\"https://orcid.org/0009-0004-5867-1904\"><img src=\"/DataStore/Resources/Images/Icons/ORCID.png\" class=\"orcidContact\" alt=\"orcid.org click-able icon\"><\/a>   and Others. 2024. Pilot Landbird Monitoring throughout the Southeast Coast Network, 2009-2010 - Data Package. National Park Service. Fort Collins CO  https://doi.org/10.57830/2305115",
            "allContactsDisplayCitation": "Brown JR  <a target=\"_blank\" href=\"https://orcid.org/0009-0004-5867-1904\"><img src=\"/DataStore/Resources/Images/Icons/ORCID.png\" class=\"orcidContact\" alt=\"orcid.org click-able icon\"><\/a>  , Byrne MW, DeVivo JC  <a target=\"_blank\" href=\"https://orcid.org/0000-0002-0414-7865\"><img src=\"/DataStore/Resources/Images/Icons/ORCID.png\" class=\"orcidContact\" alt=\"orcid.org click-able icon\"><\/a>  , Asper JR, Blankley BA. 2024. Pilot Landbird Monitoring throughout the Southeast Coast Network, 2009-2010 - Data Package. National Park Service. Fort Collins CO  https://doi.org/10.57830/2305115",
            "referenceUrl": " https://irma.nps.gov/DataStore/Reference/Profile/2305115",
            "contacts": null,
            "referenceGroupType": "Datasets",
            "typeName": "Data Package",
            "isDOI": "True",
            "newVersion": null,
            "mostRecentVersion": null,
            "productCount": 0
        },
        {
            "referenceId": 2303237,
            "referenceType": "Data Package",
            "dateOfIssue": "2024-04-10T12:00:00Z",
            "lifecycle": "Active",
            "visibility": "Public",
            "fileCount": 15,
            "fileAccess": "Public",
            "title": "Fish Community and Associated Habitat Data From the Heartland Inventory and Monitoring Network: 2001-2023 - Data Package",
            "citation": "Dodd HR and Quevedo IA  <a target=\"_blank\" href=\"https://orcid.org/0000-0003-0129-981X\"><img src=\"/DataStore/Resources/Images/Icons/ORCID.png\" class=\"orcidContact\" alt=\"orcid.org click-able icon\"><\/a>. 2024. Fish Community and Associated Habitat Data From the Heartland Inventory and Monitoring Network: 2001-2023 - Data Package. National Park Service. Fort Collins CO  https://doi.org/10.57830/2303237",
            "allContactsDisplayCitation": "Dodd HR and Quevedo IA  <a target=\"_blank\" href=\"https://orcid.org/0000-0003-0129-981X\"><img src=\"/DataStore/Resources/Images/Icons/ORCID.png\" class=\"orcidContact\" alt=\"orcid.org click-able icon\"><\/a>  . 2024. Fish Community and Associated Habitat Data From the Heartland Inventory and Monitoring Network: 2001-2023 - Data Package. National Park Service. Fort Collins CO  https://doi.org/10.57830/2303237",
            "referenceUrl": " https://irma.nps.gov/DataStore/Reference/Profile/2303237",
            "contacts": null,
            "referenceGroupType": "Datasets",
            "typeName": "Data Package",
            "isDOI": "True",
            "newVersion": null,
            "mostRecentVersion": null,
            "productCount": 0
        }
    ],
    "pageDetail": {
        "responseCount": 5,
        "totalCount": 212,
        "pageNumber": 1,
        "totalPages": 43,
        "pageSize": 5,
        "first": "https://irmaservices.nps.gov/datastore/v7/rest/ReferenceTypeSearch/dataPackage?top=5&page=1",
        "previous": null,
        "next": "https://irmaservices.nps.gov/datastore/v7/rest/ReferenceTypeSearch/dataPackage?top=5&page=2",
        "last": "https://irmaservices.nps.gov/datastore/v7/rest/ReferenceTypeSearch/dataPackage?top=5&page=43"
    }
}
